…
apendx %>% get_tag_cor() %>% print()

## Warning in stats::cor(cor_data): the standard deviation is zero

## # A tibble: 304 x 2
##    name                 correlation
##    <chr>                      <dbl>
##  1 surg_bun_t_lung            0.686
##  2 surg_bun_t_percut          0.686
##  3 medi_bun_t_establish       0.686
##  4 medi_bun_t_eye_exam        0.686
##  5 radi_bun_t_ct_scan         0.686
##  6 radi_bun_t_head            0.686
##  7 radi_bun_t_scan            0.686
##  8 radi_bun_t_brain           0.664
##  9 duration_max               0.656
## 10 surg_bun_t_pancreas        0.587
## # ... with 294 more rows
…
apendx[cnt > 4 & faci_bun_sum_med > 1000 & surg_bun_t_lung==F & radi_bun_t_brain==F] %>% get_tag_cor() %>% print()

## Warning in stats::cor(cor_data): the standard deviation is zero

## # A tibble: 281 x 2
##    name                   correlation
##    <chr>                        <dbl>
##  1 duration_mean                0.615
##  2 duration_max                 0.594
##  3 medi_bun_t_sodium            0.402
##  4 medi_bun_t_inject            0.393
##  5 surg_bun_t_gallbladder       0.324
##  6 surg_bun_t_removal           0.321
##  7 faci_bun_t_hospital          0.318
##  8 medi_bun_t_cathet            0.308
##  9 surg_bun_t_bladder           0.288
## 10 surg_bun_t_lap               0.280
## # ... with 271 more rows
…
apendx_w_sodium %>% get_tag_cor() %>% print()

## Warning in stats::cor(cor_data): the standard deviation is zero

## # A tibble: 211 x 2
##    name                correlation
##    <chr>                     <dbl>
##  1 medi_bun_t_cathet         0.381
##  2 medi_bun_t_flu            0.381
##  3 medi_bun_t_wound          0.381
##  4 path_bun_t_embryo         0.381
##  5 duration_max              0.368
##  6 surg_bun_t_removal        0.344
##  7 duration_mean             0.343
##  8 path_bun_t_anti           0.320
##  9 faci_bun_t_critical       0.314
## 10 path_bun_t_blood          0.273
## # ... with 201 more rows
…
apendx_w_sodium %>% get_tag_cor() %>% print()

## Warning in stats::cor(cor_data): the standard deviation is zero

## # A tibble: 197 x 2
##    name                    correlation
##    <chr>                         <dbl>
##  1 faci_bun_t_dept               0.321
##  2 faci_bun_t_emergency          0.321
##  3 medi_bun_t_puncture           0.275
##  4 medi_bun_t_routine            0.275
##  5 medi_bun_t_venipuncture       0.275
##  6 duration_max                  0.258
##  7 faci_bun_t_visit              0.235
##  8 medi_bun_t_observ             0.234
##  9 radi_bun_t_contrast           0.232
## 10 path_bun_t_comprehen          0.229
## # ... with 187 more rows
…
apendx_w_sodium_at_emerg %>% get_tag_cor() %>% print()

## Warning in stats::cor(cor_data): the standard deviation is zero

## # A tibble: 140 x 2
##    name                    correlation
##    <chr>                         <dbl>
##  1 medi_bun_t_observ             0.321
##  2 medi_bun_t_puncture           0.299
##  3 medi_bun_t_routine            0.299
##  4 medi_bun_t_venipuncture       0.299
##  5 duration_max                  0.274
##  6 duration_mean                 0.228
##  7 path_bun_t_alkaline           0.226
##  8 path_bun_t_amino              0.226
##  9 path_bun_t_phosphatase        0.226
## 10 medi_bun_t_solution           0.203
## # ... with 130 more rows
…
apendx_w_sodium_at_emerg %>% get_tag_cor() %>% print()

## Warning in stats::cor(cor_data): the standard deviation is zero

## # A tibble: 130 x 2
##    name                    correlation
##    <chr>                         <dbl>
##  1 duration_max                  0.324
##  2 medi_bun_t_observ             0.288
##  3 duration_mean                 0.273
##  4 medi_bun_t_puncture           0.258
##  5 medi_bun_t_routine            0.258
##  6 medi_bun_t_venipuncture       0.258
##  7 radi_bun_t_mri                0.207
##  8 radi_bun_t_without_dye        0.207
##  9 radi_bun_t_ct                 0.199
## 10 radi_bun_t_contrast           0.193
## # ... with 120 more rows
…
apendx_w_sodium_n_emerg %>% get_tag_cor() %>% print()

## Warning in stats::cor(cor_data): the standard deviation is zero

## # A tibble: 145 x 2
##    name               correlation
##    <chr>                    <dbl>
##  1 path_bun_t_typing        0.373
##  2 path_bun_t_screen        0.343
##  3 path_bun_t_anti          0.322
##  4 path_bun_t_antibod       0.322
##  5 path_bun_t_blood         0.303
##  6 surg_bun_t_remov         0.288
##  7 surg_bun_t_remove        0.288
##  8 surg_bun_t_excise        0.264
##  9 surg_bun_t_lesion        0.264
## 10 surg_bun_t_exc           0.243
## # ... with 135 more rows
…
apendx_n_sodium %>% get_tag_cor() %>% print()

## Warning in stats::cor(cor_data): the standard deviation is zero

## # A tibble: 205 x 2
##    name                   correlation
##    <chr>                        <dbl>
##  1 duration_mean                0.591
##  2 duration_max                 0.56 
##  3 surg_bun_t_bladder           0.370
##  4 surg_bun_t_gallbladder       0.370
##  5 surg_bun_t_cysto             0.368
##  6 surg_bun_t_cystoscopy        0.368
##  7 surg_bun_t_treat             0.368
##  8 surg_bun_t_removal           0.322
##  9 surg_bun_t_cyst              0.316
## 10 surg_bun_t_add-on            0.312
## # ... with 195 more rows
…
apendx_n_sodium %>% get_tag_cor() %>% print()

## Warning in stats::cor(cor_data): the standard deviation is zero

## # A tibble: 130 x 2
##    name                correlation
##    <chr>                     <dbl>
##  1 duration_mean             0.558
##  2 duration_max              0.481
##  3 medi_bun_t_choline        0.174
##  4 radi_bun_t_with_dye       0.153
##  5 radi_bun_t_ct             0.140
##  6 radi_bun_t_echo           0.139
##  7 faci_bun_t_care           0.128
##  8 radi_bun_t_imag           0.113
##  9 radi_bun_t_imaging        0.113
## 10 radi_bun_t_mri            0.113
## # ... with 120 more rows
…
apendx_n_sodium[duration_mean<2] %>% get_tag_cor() %>% print()

## Warning in stats::cor(cor_data): the standard deviation is zero

## # A tibble: 125 x 2
##    name                   correlation
##    <chr>                        <dbl>
##  1 medi_bun_t_choline           0.275
##  2 duration_max                 0.269
##  3 duration_mean                0.241
##  4 radi_bun_t_echo              0.200
##  5 radi_bun_t_imag              0.183
##  6 radi_bun_t_imaging           0.183
##  7 radi_bun_t_mri               0.183
##  8 radi_bun_t_without_dye       0.183
##  9 anes_bun_t_mod_sed           0.183
## 10 radi_bun_t_exam              0.182
## # ... with 115 more rows
…
apendx_n_sodium %>% get_tag_cor() %>% print()

## Warning in stats::cor(cor_data): the standard deviation is zero

## # A tibble: 116 x 2
##    name                correlation
##    <chr>                     <dbl>
##  1 duration_max              0.281
##  2 duration_mean             0.245
##  3 radi_bun_t_echo           0.188
##  4 radi_bun_t_ct             0.181
##  5 radi_bun_t_contrast       0.173
##  6 radi_bun_t_exam           0.164
##  7 radi_bun_t_abdom          0.153
##  8 faci_bun_t_est            0.135
##  9 surg_bun_t_dev            0.129
## 10 surg_bun_t_device         0.129
## # ... with 106 more rows
…
