…
birth_vag[cnt>5 & faci_bun_sum_med > 1000]%>% get_tag_cor() %>% print()

## Warning in stats::cor(cor_data): the standard deviation is zero

## # A tibble: 307 x 2
##    name                correlation
##    <chr>                     <dbl>
##  1 duration_max              0.318
##  2 surg_bun_t_abd            0.268
##  3 surg_bun_t_abdom          0.268
##  4 surg_bun_t_abdomen        0.268
##  5 surg_bun_t_explora        0.268
##  6 anes_bun_t_abdom          0.246
##  7 faci_bun_t_care           0.242
##  8 faci_bun_t_initial        0.239
##  9 anes_bun_t_lower          0.237
## 10 faci_bun_t_hospital       0.236
## # ... with 297 more rows
…
birth_vag%>% get_tag_cor() %>% print()

## Warning in stats::cor(cor_data): the standard deviation is zero

## # A tibble: 300 x 2
##    name                  correlation
##    <chr>                       <dbl>
##  1 duration_max                0.304
##  2 faci_bun_t_care             0.234
##  3 faci_bun_t_hospital         0.229
##  4 faci_bun_t_initial          0.225
##  5 faci_bun_t_dept             0.218
##  6 faci_bun_t_emergency        0.218
##  7 faci_bun_t_visit            0.209
##  8 faci_bun_t_subsequent       0.195
##  9 anes_bun_t_anes             0.180
## 10 anes_bun_t_anesth           0.180
## # ... with 290 more rows
…
birth_vag%>% get_tag_cor() %>% print()

## Warning in stats::cor(cor_data): the standard deviation is zero

## # A tibble: 276 x 2
##    name                 correlation
##    <chr>                      <dbl>
##  1 anes_bun_t_anes            0.196
##  2 anes_bun_t_anesth          0.196
##  3 faci_bun_t_dept            0.192
##  4 faci_bun_t_emergency       0.192
##  5 duration_max               0.192
##  6 anes_bun_t_vag             0.191
##  7 anes_bun_t_deliver         0.190
##  8 anes_bun_t_liver           0.190
##  9 anes_bun_t_analg           0.188
## 10 faci_bun_t_visit           0.178
## # ... with 266 more rows
…
birth_vag%>% get_tag_cor() %>% print()

## Warning in stats::cor(cor_data): the standard deviation is zero

## # A tibble: 259 x 2
##    name                    correlation
##    <chr>                         <dbl>
##  1 faci_bun_t_dept               0.206
##  2 faci_bun_t_emergency          0.206
##  3 faci_bun_t_visit              0.186
##  4 duration_max                  0.178
##  5 surg_bun_t_hyst               0.144
##  6 surg_bun_t_hysterectomy       0.144
##  7 path_bun_t_patho              0.127
##  8 path_bun_t_pathologist        0.127
##  9 path_bun_t_tissue             0.127
## 10 surg_bun_t_total              0.117
## # ... with 249 more rows
…
birth_vag%>% get_tag_cor() %>% print()

## Warning in stats::cor(cor_data): the standard deviation is zero

## # A tibble: 241 x 2
##    name                    correlation
##    <chr>                         <dbl>
##  1 duration_max                 0.179 
##  2 surg_bun_t_hyst              0.150 
##  3 surg_bun_t_hysterectomy      0.150 
##  4 surg_bun_t_total             0.121 
##  5 path_bun_t_patho             0.117 
##  6 path_bun_t_pathologist       0.117 
##  7 path_bun_t_tissue            0.117 
##  8 anes_bun_t_lower             0.115 
##  9 anes_bun_t_abdom             0.108 
## 10 anes_bun_t_surg              0.0929
## # ... with 231 more rows
…
birth_vag%>% get_tag_cor() %>% print()

## Warning in stats::cor(cor_data): the standard deviation is zero

## # A tibble: 237 x 2
##    name                   correlation
##    <chr>                        <dbl>
##  1 duration_max                0.178 
##  2 path_bun_t_patho            0.110 
##  3 path_bun_t_pathologist      0.110 
##  4 path_bun_t_tissue           0.110 
##  5 path_bun_t_complete         0.0754
##  6 surg_bun_t_uterus           0.0741
##  7 path_bun_t_screen           0.0732
##  8 anes_bun_t_tubal            0.0711
##  9 surg_bun_t_fallopian        0.0709
## 10 surg_bun_t_tube             0.0709
## # ... with 227 more rows
…
birth_vag %>% get_tag_cor() %>% print()

## Warning in stats::cor(cor_data): the standard deviation is zero

## # A tibble: 211 x 2
##    name                   correlation
##    <chr>                        <dbl>
##  1 duration_max                0.168 
##  2 surg_bun_t_uterus           0.079 
##  3 path_bun_t_complete         0.0723
##  4 path_bun_t_screen           0.0713
##  5 surg_bun_t_hematoma         0.0703
##  6 radi_bun_t_ct               0.0612
##  7 medi_bun_t_observ           0.061 
##  8 anes_bun_t_abdom            0.0597
##  9 anes_bun_t_lower            0.0597
## 10 radi_bun_t_angiography      0.0594
## # ... with 201 more rows
…
birth_vag %>% get_tag_cor() %>% print()

## Warning in stats::cor(cor_data): the standard deviation is zero

## # A tibble: 186 x 2
##    name               correlation
##    <chr>                    <dbl>
##  1 duration_max            0.159 
##  2 path_bun_t_anti         0.0597
##  3 path_bun_t_antibod      0.0597
##  4 path_bun_t_screen       0.0558
##  5 radi_bun_t_pelvi        0.0548
##  6 surg_bun_t_dev          0.0522
##  7 surg_bun_t_device       0.0522
##  8 medi_bun_t_observ       0.0514
##  9 surg_bun_t_insert       0.0476
## 10 path_bun_t_blood        0.0468
## # ... with 176 more rows
…
birth_vag[cnt > 10 & faci_bun_sum_med > 2000] %>% get_tag_cor() %>% print()

## Warning in stats::cor(cor_data): the standard deviation is zero

## # A tibble: 171 x 2
##    name               correlation
##    <chr>                    <dbl>
##  1 medi_bun_t_clinic       0.123 
##  2 medi_bun_t_outpt        0.123 
##  3 duration_max            0.122 
##  4 medi_bun_t_visit        0.116 
##  5 radi_bun_t_pelvi        0.086 
##  6 path_bun_t_anti         0.0721
##  7 path_bun_t_antibod      0.0721
##  8 medi_bun_t_inject       0.0641
##  9 medi_bun_t_sulfate      0.0629
## 10 surg_bun_t_remov        0.0618
## # ... with 161 more rows
…
birth_vag %>% get_tag_cor() %>% print()

## Warning in stats::cor(cor_data): the standard deviation is zero

## # A tibble: 167 x 2
##    name               correlation
##    <chr>                    <dbl>
##  1 duration_max            0.119 
##  2 radi_bun_t_pelvi        0.0882
##  3 path_bun_t_fetal        0.0782
##  4 path_bun_t_anti         0.0756
##  5 path_bun_t_antibod      0.0756
##  6 path_bun_t_typing       0.073 
##  7 path_bun_t_blood        0.0631
##  8 surg_bun_t_remov        0.0623
##  9 surg_bun_t_removal      0.0554
## 10 anes_bun_t_vag          0.0543
## # ... with 157 more rows
…
birth_vag %>% get_tag_cor() %>% print()

## Warning in stats::cor(cor_data): the standard deviation is zero

## # A tibble: 166 x 2
##    name               correlation
##    <chr>                    <dbl>
##  1 duration_max            0.117 
##  2 path_bun_t_fetal        0.079 
##  3 path_bun_t_anti         0.0765
##  4 path_bun_t_antibod      0.0765
##  5 path_bun_t_typing       0.0739
##  6 path_bun_t_blood        0.0639
##  7 surg_bun_t_remov        0.0631
##  8 surg_bun_t_removal      0.0561
##  9 anes_bun_t_vag          0.055 
## 10 surg_bun_t_scar         0.0543
## # ... with 156 more rows
…
birth_vag %>% get_tag_cor() %>% print()

## Warning in stats::cor(cor_data): the standard deviation is zero

## # A tibble: 165 x 2
##    name                 correlation
##    <chr>                      <dbl>
##  1 duration_max              0.114 
##  2 surg_bun_t_remov          0.0634
##  3 surg_bun_t_removal        0.0564
##  4 anes_bun_t_vag            0.0553
##  5 surg_bun_t_scar           0.0545
##  6 surg_bun_t_treat          0.0545
##  7 anes_bun_t_analg          0.054 
##  8 surg_bun_t_fallopian      0.0533
##  9 surg_bun_t_tube           0.0533
## 10 anes_bun_t_tubal          0.0533
## # ... with 155 more rows
…
birth_csec %>% get_tag_cor() %>% print()

## Warning in stats::cor(cor_data): the standard deviation is zero

## # A tibble: 287 x 2
##    name                correlation
##    <chr>                     <dbl>
##  1 duration_max              0.587
##  2 anes_bun_t_anes           0.326
##  3 anes_bun_t_anesth         0.325
##  4 anes_bun_t_deliver        0.324
##  5 anes_bun_t_liver          0.324
##  6 anes_bun_t_cs             0.291
##  7 faci_bun_t_initial        0.235
##  8 anes_bun_t_vag            0.188
##  9 anes_bun_t_analg          0.183
## 10 anes_bun_t_add - on       0.174
## # ... with 277 more rows
…
birth_csec[cnt>5 & faci_bun_sum_med > 3000 & tp_med < 60000] %>% get_tag_cor() %>% print()

## Warning in stats::cor(cor_data): the standard deviation is zero

## # A tibble: 272 x 2
##    name                 correlation
##    <chr>                      <dbl>
##  1 duration_max               0.299
##  2 faci_bun_t_initial         0.27 
##  3 faci_bun_t_visit           0.186
##  4 anes_bun_t_vag             0.176
##  5 anes_bun_t_analg           0.174
##  6 faci_bun_t_dept            0.161
##  7 faci_bun_t_emergency       0.161
##  8 anes_bun_t_add - on        0.158
##  9 radi_bun_t_chest           0.147
## 10 faci_bun_t_discharge       0.132
## # ... with 262 more rows
…
birth_csec %>% get_tag_cor() %>% print()

## Warning in stats::cor(cor_data): the standard deviation is zero

## # A tibble: 272 x 2
##    name                 correlation
##    <chr>                      <dbl>
##  1 duration_max               0.299
##  2 faci_bun_t_initial         0.27 
##  3 faci_bun_t_visit           0.186
##  4 anes_bun_t_vag             0.176
##  5 anes_bun_t_analg           0.174
##  6 faci_bun_t_dept            0.161
##  7 faci_bun_t_emergency       0.161
##  8 anes_bun_t_add - on        0.158
##  9 radi_bun_t_chest           0.147
## 10 faci_bun_t_discharge       0.132
## # ... with 262 more rows
…
birth_csec %>% get_tag_cor() %>% print()

## Warning in stats::cor(cor_data): the standard deviation is zero

## # A tibble: 231 x 2
##    name                 correlation
##    <chr>                      <dbl>
##  1 duration_max              0.197 
##  2 anes_bun_t_vag            0.180 
##  3 anes_bun_t_analg          0.178 
##  4 anes_bun_t_add - on       0.161 
##  5 faci_bun_t_visit          0.147 
##  6 faci_bun_t_dept           0.128 
##  7 faci_bun_t_emergency      0.128 
##  8 path_bun_t_complete       0.0935
##  9 faci_bun_t_discharge      0.0921
## 10 surg_bun_t_remove         0.0916
## # ... with 221 more rows
…
birth_csec %>% get_tag_cor() %>% print()

## Warning in stats::cor(cor_data): the standard deviation is zero

## # A tibble: 224 x 2
##    name                   correlation
##    <chr>                        <dbl>
##  1 duration_max                0.192 
##  2 anes_bun_t_vag              0.177 
##  3 anes_bun_t_analg            0.175 
##  4 anes_bun_t_add - on         0.159 
##  5 surg_bun_t_remove           0.0961
##  6 faci_bun_t_hospital         0.0908
##  7 faci_bun_t_subsequent       0.0881
##  8 faci_bun_t_care             0.0866
##  9 path_bun_t_complete         0.0847
## 10 faci_bun_t_observation      0.0844
## # ... with 214 more rows
…
birth_csec_n_anes %>% get_tag_cor() %>% print()

## Warning in stats::cor(cor_data): the standard deviation is zero

## # A tibble: 204 x 2
##    name                    correlation
##    <chr>                         <dbl>
##  1 duration_max                 0.188 
##  2 medi_bun_t_puncture          0.128 
##  3 medi_bun_t_routine           0.128 
##  4 medi_bun_t_venipuncture      0.128 
##  5 faci_bun_t_observation       0.112 
##  6 path_bun_t_antibod           0.102 
##  7 surg_bun_t_bladder           0.1   
##  8 path_bun_t_screen            0.0978
##  9 path_bun_t_complete          0.096 
## 10 path_bun_t_anti              0.0958
## # ... with 194 more rows
…
birth_csec_w_anes %>% get_tag_cor() %>% print()

## Warning in stats::cor(cor_data): the standard deviation is zero

## # A tibble: 152 x 2
##    name                  correlation
##    <chr>                       <dbl>
##  1 surg_bun_t_remove           0.248
##  2 surg_bun_t_cyst             0.161
##  3 surg_bun_t_ovarian          0.161
##  4 surg_bun_t_remov            0.161
##  5 surg_bun_t_removal          0.161
##  6 anes_bun_t_analg            0.157
##  7 duration_max                0.127
##  8 radi_bun_t_artery           0.116
##  9 faci_bun_t_hospital         0.105
## 10 faci_bun_t_subsequent       0.105
## # ... with 142 more rows
…
birth_csec_w_anes %>% get_tag_cor() %>% print()

## Warning in stats::cor(cor_data): the standard deviation is zero

## # A tibble: 144 x 2
##    name                   correlation
##    <chr>                        <dbl>
##  1 radi_bun_t_artery           0.120 
##  2 faci_bun_t_hospital         0.117 
##  3 faci_bun_t_subsequent       0.117 
##  4 faci_bun_t_care             0.114 
##  5 radi_bun_t_echo             0.0951
##  6 path_bun_t_patho            0.0927
##  7 path_bun_t_pathologist      0.0927
##  8 path_bun_t_tissue           0.0927
##  9 path_bun_t_virus            0.0879
## 10 path_bun_t_complete         0.0877
## # ... with 134 more rows
…
birth_csec_w_anes %>% get_tag_cor() %>% print()

## Warning in stats::cor(cor_data): the standard deviation is zero

## # A tibble: 143 x 2
##    name                   correlation
##    <chr>                        <dbl>
##  1 faci_bun_t_hospital         0.125 
##  2 faci_bun_t_subsequent       0.125 
##  3 faci_bun_t_care             0.123 
##  4 path_bun_t_patho            0.0939
##  5 path_bun_t_pathologist      0.0939
##  6 path_bun_t_tissue           0.0939
##  7 path_bun_t_virus            0.0902
##  8 duration_max                0.0897
##  9 path_bun_t_complete         0.0817
## 10 surg_bun_t_abdom            0.0779
## # ... with 133 more rows
…
birth_csec_w_anes %>% get_tag_cor() %>% print()

## Warning in stats::cor(cor_data): the standard deviation is zero

## # A tibble: 109 x 2
##    name                correlation
##    <chr>                     <dbl>
##  1 duration_max              0.123
##  2 path_bun_t_complete       0.121
##  3 path_bun_t_colon          0.117
##  4 path_bun_t_count          0.117
##  5 path_bun_t_virus          0.117
##  6 surg_bun_t_abd            0.100
##  7 surg_bun_t_abdom          0.100
##  8 surg_bun_t_abdomen        0.100
##  9 surg_bun_t_open           0.100
## 10 surg_bun_t_opening        0.100
## # ... with 99 more rows
…
birth_csec_w_anes %>% get_tag_cor() %>% print()

## Warning in stats::cor(cor_data): the standard deviation is zero

## # A tibble: 86 x 2
##    name                   correlation
##    <chr>                        <dbl>
##  1 duration_max                0.108 
##  2 surg_bun_t_b9               0.104 
##  3 surg_bun_t_exc              0.104 
##  4 surg_bun_t_block            0.0932
##  5 surg_bun_t_injection        0.0932
##  6 path_bun_t_amniotic         0.0808
##  7 path_bun_t_protein          0.0808
##  8 path_bun_t_patho            0.0734
##  9 path_bun_t_pathologist      0.0734
## 10 path_bun_t_tissue           0.0734
## # ... with 76 more rows
…
birth_csec_w_anes %>% get_tag_cor() %>% print()

## Warning in stats::cor(cor_data): the standard deviation is zero

## # A tibble: 84 x 2
##    name                  correlation
##    <chr>                       <dbl>
##  1 duration_max               0.106 
##  2 surg_bun_t_block           0.0951
##  3 surg_bun_t_injection       0.0951
##  4 path_bun_t_amniotic        0.082 
##  5 path_bun_t_protein         0.082 
##  6 surg_bun_t_ant             0.065 
##  7 surg_bun_t_antepartum      0.065 
##  8 surg_bun_t_art             0.065 
##  9 surg_bun_t_part            0.065 
## 10 surg_bun_t_tum             0.065 
## # ... with 74 more rows
…
birth_csec_w_anes %>% get_tag_cor() %>% print()

## Warning in stats::cor(cor_data): the standard deviation is zero

## # A tibble: 75 x 2
##    name                   correlation
##    <chr>                        <dbl>
##  1 duration_max                0.110 
##  2 medi_bun_t_observ           0.0641
##  3 radi_bun_t_abdom            0.0623
##  4 surg_bun_t_ant              0.0617
##  5 surg_bun_t_antepartum       0.0617
##  6 surg_bun_t_art              0.0617
##  7 surg_bun_t_part             0.0617
##  8 surg_bun_t_tum              0.0617
##  9 path_bun_t_patho            0.061 
## 10 path_bun_t_pathologist      0.061 
## # ... with 65 more rows
…
birth_csec_w_anes_w_sub_hosp_care %>% get_tag_cor() %>% print()

## Warning in stats::cor(cor_data): the standard deviation is zero

## # A tibble: 110 x 2
##    name                    correlation
##    <chr>                         <dbl>
##  1 anes_bun_t_cs                 0.127
##  2 radi_bun_t_contrast           0.119
##  3 medi_bun_t_immun              0.119
##  4 medi_bun_t_immunization       0.119
##  5 medi_bun_t_vacc               0.119
##  6 medi_bun_t_iiv                0.118
##  7 anes_bun_t_add - on           0.117
##  8 medi_bun_t_clinic             0.112
##  9 medi_bun_t_outpt              0.112
## 10 radi_bun_t_ct                 0.111
## # ... with 100 more rows
…
