…
cscopy %>% get_tag_cor() %>% print()

## Warning in stats::cor(cor_data): the standard deviation is zero

## # A tibble: 510 x 2
##    name                   correlation
##    <chr>                        <dbl>
##  1 surg_bun_t_egd               0.374
##  2 surg_bun_t_tip               0.371
##  3 surg_bun_t_biopsy            0.268
##  4 path_bun_t_patho             0.256
##  5 path_bun_t_pathologist       0.256
##  6 path_bun_t_tissue            0.256
##  7 medi_bun_t_sodium            0.238
##  8 surg_bun_t_sub               0.212
##  9 surg_bun_t_njx               0.208
## 10 path_bun_t_immunohisto       0.193
## # ... with 500 more rows
…
cscopy %>% get_tag_cor() %>% print()

## Warning in stats::cor(cor_data): the standard deviation is zero

## # A tibble: 467 x 2
##    name                   correlation
##    <chr>                        <dbl>
##  1 surg_bun_t_sub               0.295
##  2 surg_bun_t_remov             0.291
##  3 surg_bun_t_njx               0.290
##  4 surg_bun_t_removal           0.282
##  5 surg_bun_t_lesion            0.278
##  6 path_bun_t_patho             0.232
##  7 path_bun_t_pathologist       0.232
##  8 path_bun_t_tissue            0.232
##  9 surg_bun_t_diagnostic        0.221
## 10 anes_bun_t_mod_sed           0.202
## # ... with 457 more rows
…
cscopy %>% get_tag_cor() %>% print()

## Warning in stats::cor(cor_data): the standard deviation is zero

## # A tibble: 427 x 2
##    name                   correlation
##    <chr>                        <dbl>
##  1 anes_bun_t_anesth            0.257
##  2 anes_bun_t_surg              0.240
##  3 medi_bun_t_sodium            0.212
##  4 anes_bun_t_anes              0.201
##  5 path_bun_t_patho             0.190
##  6 path_bun_t_pathologist       0.190
##  7 path_bun_t_tissue            0.190
##  8 faci_bun_t_dept              0.182
##  9 faci_bun_t_emergency         0.182
## 10 surg_bun_t_remov             0.182
## # ... with 417 more rows
…
cscopy %>% get_tag_cor() %>% print()

## Warning in stats::cor(cor_data): the standard deviation is zero

## # A tibble: 342 x 2
##    name                   correlation
##    <chr>                        <dbl>
##  1 faci_bun_t_dept              0.274
##  2 faci_bun_t_emergency         0.274
##  3 anes_bun_t_anesth            0.251
##  4 anes_bun_t_surg              0.225
##  5 anes_bun_t_anes              0.224
##  6 faci_bun_t_discharge         0.212
##  7 faci_bun_t_initial           0.190
##  8 faci_bun_t_care              0.187
##  9 faci_bun_t_observation       0.186
## 10 surg_bun_t_remov             0.184
## # ... with 332 more rows
…
cscopy %>% get_tag_cor() %>% print()

## Warning in stats::cor(cor_data): the standard deviation is zero

## # A tibble: 333 x 2
##    name               correlation
##    <chr>                    <dbl>
##  1 anes_bun_t_anesth        0.271
##  2 anes_bun_t_anes          0.250
##  3 anes_bun_t_surg          0.243
##  4 surg_bun_t_remov         0.2  
##  5 surg_bun_t_anal          0.194
##  6 surg_bun_t_remove        0.184
##  7 medi_bun_t_sodium        0.180
##  8 surg_bun_t_repair        0.156
##  9 surg_bun_t_complex       0.147
## 10 surg_bun_t_tags          0.140
## # ... with 323 more rows
…
cscopy_with_egd %>% get_tag_cor() %>% print()

## Warning in stats::cor(cor_data): the standard deviation is zero

## # A tibble: 355 x 2
##    name                  correlation
##    <chr>                       <dbl>
##  1 medi_bun_t_sodium           0.306
##  2 surg_bun_t_small            0.27 
##  3 surg_bun_t_bowel            0.270
##  4 surg_bun_t_endoscopy        0.270
##  5 surg_bun_t_endo             0.255
##  6 medi_bun_t_inject           0.226
##  7 surg_bun_t_diagnostic       0.224
##  8 anes_bun_t_anes             0.147
##  9 path_bun_t_test             0.142
## 10 path_bun_t_patho            0.139
## # ... with 345 more rows
…
cscopy_with_edg_with_sodium <-  cscopy_with_egd[medi_bun_t_sodium==T]
cscopy_with_egd <- cscopy_with_egd[medi_bun_t_sodium==F]

cscopy_with_egd %>% get_tag_cor() %>% print()

## Warning in stats::cor(cor_data): the standard deviation is zero

## # A tibble: 342 x 2
##    name                   correlation
##    <chr>                        <dbl>
##  1 surg_bun_t_diagnostic        0.207
##  2 medi_bun_t_inject            0.175
##  3 anes_bun_t_mod_sed           0.158
##  4 surg_bun_t_remov             0.151
##  5 surg_bun_t_removal           0.150
##  6 surg_bun_t_lesion            0.15 
##  7 surg_bun_t_njx               0.141
##  8 surg_bun_t_sub               0.140
##  9 path_bun_t_patho             0.136
## 10 path_bun_t_pathologist       0.136
## # ... with 332 more rows
…
cscopy_with_lesion %>% get_tag_cor() %>% print()

## Warning in stats::cor(cor_data): the standard deviation is zero

## # A tibble: 323 x 2
##    name                 correlation
##    <chr>                      <dbl>
##  1 surg_bun_t_sub             0.341
##  2 surg_bun_t_njx             0.337
##  3 anes_bun_t_mod_sed         0.301
##  4 surg_bun_t_biopsy          0.297
##  5 medi_bun_t_inject          0.236
##  6 surg_bun_t_resect          0.178
##  7 anes_bun_t_anesth          0.107
##  8 faci_bun_t_dept            0.105
##  9 faci_bun_t_emergency       0.105
## 10 anes_bun_t_surg            0.105
## # ... with 313 more rows
…
cscopy_with_lesion %>% get_tag_cor() %>% print()

## Warning in stats::cor(cor_data): the standard deviation is zero

## # A tibble: 275 x 2
##    name                 correlation
##    <chr>                      <dbl>
##  1 surg_bun_t_sub            0.256 
##  2 surg_bun_t_njx            0.254 
##  3 surg_bun_t_biopsy         0.254 
##  4 anes_bun_t_anes           0.145 
##  5 faci_bun_t_dept           0.128 
##  6 faci_bun_t_emergency      0.128 
##  7 faci_bun_t_hospital       0.116 
##  8 anes_bun_t_mod_sed        0.115 
##  9 faci_bun_t_care           0.0962
## 10 faci_bun_t_initial        0.0962
## # ... with 265 more rows
…
cscopy_with_lesion %>% get_tag_cor() %>% print()

## Warning in stats::cor(cor_data): the standard deviation is zero

## # A tibble: 231 x 2
##    name                 correlation
##    <chr>                      <dbl>
##  1 surg_bun_t_sub             0.269
##  2 surg_bun_t_njx             0.263
##  3 faci_bun_t_dept            0.204
##  4 faci_bun_t_emergency       0.204
##  5 anes_bun_t_anes            0.180
##  6 faci_bun_t_hospital        0.168
##  7 anes_bun_t_anesth          0.139
##  8 surg_bun_t_sheath          0.134
##  9 surg_bun_t_tendon          0.134
## 10 surg_bun_t_endo            0.131
## # ... with 221 more rows
…
cscopy_with_lesion %>% get_tag_cor() %>% print()

## Warning in stats::cor(cor_data): the standard deviation is zero

## # A tibble: 222 x 2
##    name                 correlation
##    <chr>                      <dbl>
##  1 anes_bun_t_anes            0.211
##  2 faci_bun_t_dept            0.198
##  3 faci_bun_t_emergency       0.198
##  4 surg_bun_t_sheath          0.153
##  5 surg_bun_t_tendon          0.153
##  6 surg_bun_t_endo            0.150
##  7 surg_bun_t_block           0.148
##  8 medi_bun_t_add-on          0.144
##  9 medi_bun_t_hydrate         0.144
## 10 medi_bun_t_observ          0.144
## # ... with 212 more rows
…
cscopy_with_lesion %>% get_tag_cor() %>% print()

## Warning in stats::cor(cor_data): the standard deviation is zero

## # A tibble: 205 x 2
##    name               correlation
##    <chr>                    <dbl>
##  1 anes_bun_t_anes          0.206
##  2 surg_bun_t_sheath        0.157
##  3 surg_bun_t_tendon        0.157
##  4 surg_bun_t_endo          0.154
##  5 surg_bun_t_block         0.152
##  6 anes_bun_t_anesth        0.131
##  7 anes_bun_t_mod_sed       0.129
##  8 surg_bun_t_eye           0.128
##  9 radi_bun_t_guide         0.116
## 10 surg_bun_t_remove        0.115
## # ... with 195 more rows
…
cscopy_with_lesion %>% get_tag_cor() %>% print()

## Warning in stats::cor(cor_data): the standard deviation is zero

## # A tibble: 198 x 2
##    name                correlation
##    <chr>                     <dbl>
##  1 anes_bun_t_anes          0.182 
##  2 anes_bun_t_mod_sed       0.130 
##  3 medi_bun_t_normal        0.105 
##  4 medi_bun_t_saline        0.105 
##  5 medi_bun_t_solution      0.105 
##  6 path_bun_t_agent         0.0698
##  7 path_bun_t_reagent       0.0698
##  8 surg_bun_t_endo          0.0628
##  9 surg_bun_t_esoph         0.0628
## 10 surg_bun_t_exam          0.0628
## # ... with 188 more rows
…
1. injection

lets break down the lesion removal with an injection

cscopy_with_lesion_with_injection %>% get_tag_cor() %>% print()

## Warning in stats::cor(cor_data): the standard deviation is zero

## # A tibble: 236 x 2
##    name               correlation
##    <chr>                    <dbl>
##  1 surg_bun_t_sub           0.415
##  2 surg_bun_t_njx           0.411
##  3 anes_bun_t_mod_sed       0.392
##  4 surg_bun_t_biopsy        0.331
##  5 surg_bun_t_resect        0.217
##  6 anes_bun_t_anesth        0.140
##  7 anes_bun_t_surg          0.140
##  8 radi_bun_t_view          0.124
##  9 surg_bun_t_remove        0.115
## 10 medi_bun_t_choline       0.108
## # ... with 226 more rows
…
cscopy_with_lesion_biopsy_injection <- cscopy_with_lesion_with_injection[surg_bun_t_biopsy==T]
cscopy_with_lesion_with_injection <- cscopy_with_lesion_with_injection[surg_bun_t_biopsy==F]

cscopy_with_lesion_with_injection %>%  get_tag_cor() %>% print()

## Warning in stats::cor(cor_data): the standard deviation is zero

## # A tibble: 135 x 2
##    name               correlation
##    <chr>                    <dbl>
##  1 surg_bun_t_resect        0.308
##  2 anes_bun_t_anesth        0.256
##  3 anes_bun_t_surg          0.256
##  4 anes_bun_t_mod_sed       0.244
##  5 anes_bun_t_anes          0.236
##  6 surg_bun_t_remove        0.205
##  7 surg_bun_t_endo          0.195
##  8 surg_bun_t_tendon        0.195
##  9 surg_bun_t_wrist         0.195
## 10 anes_bun_t_lower         0.195
## # ... with 125 more rows
…
cscopy_with_lesion_with_injection_bundle <-  cscopy_with_lesion_with_injection %>% btbv4()

# cscopy_with_lesion_with_injection_bundle %>% View()

# cscopy_with_lesion_with_injection_bundle %>% saveRDS("dash_colonoscopy_lesion_injection.RDS")

2. biopsy

cscopy_with_lesion_and_biopsy %>% get_tag_cor() %>% print()

## Warning in stats::cor(cor_data): the standard deviation is zero

## # A tibble: 186 x 2
##    name                correlation
##    <chr>                     <dbl>
##  1 surg_bun_t_njx           0.245 
##  2 surg_bun_t_sub           0.245 
##  3 anes_bun_t_mod_sed       0.139 
##  4 surg_bun_t_ligation      0.118 
##  5 duration_mean            0.117 
##  6 surg_bun_t_control       0.113 
##  7 duration_max             0.0995
##  8 surg_bun_t_dura          0.0962
##  9 anes_bun_t_anes          0.0858
## 10 faci_bun_t_care          0.0855
## # ... with 176 more rows
…
cscopy_with_lesion_and_biopsy <-  cscopy_with_lesion_and_biopsy[path_bun_t_patho==T]

cscopy_with_lesion_and_biopsy <- cscopy_with_lesion_and_biopsy[path_bun_t_metabolic==F & faci_bun_t_emergency==F]

cscopy_with_lesion_and_biopsy %>% get_tag_cor() %>% print()

## Warning in stats::cor(cor_data): the standard deviation is zero

## # A tibble: 167 x 2
##    name                    correlation
##    <chr>                         <dbl>
##  1 anes_bun_t_mod_sed           0.174 
##  2 anes_bun_t_anes              0.0972
##  3 surg_bun_t_resect            0.0952
##  4 surg_bun_t_control           0.0851
##  5 surg_bun_t_hemorrhoid        0.0783
##  6 surg_bun_t_ligation          0.0783
##  7 path_bun_t_sex               0.0613
##  8 path_bun_t_testosterone      0.0613
##  9 surg_bun_t_breast            0.0608
## 10 medi_bun_t_stud              0.0602
## # ... with 157 more rows
…
there is strong evidence to split those groups into two.

cscopy_with_lesion_and_biopsy_and_mod_sed <-  cscopy_with_lesion_and_biopsy[anes_bun_t_mod_sed==T]
cscopy_with_lesion_and_biopsy <- cscopy_with_lesion_and_biopsy[anes_bun_t_mod_sed==F]

lets check the dist and correlated tags

cscopy_with_lesion_and_biopsy %>% get_tag_cor() %>% print()

## Warning in stats::cor(cor_data): the standard deviation is zero

## # A tibble: 146 x 2
##    name                    correlation
##    <chr>                         <dbl>
##  1 surg_bun_t_resect            0.131 
##  2 anes_bun_t_anes              0.111 
##  3 path_bun_t_immunohisto       0.0857
##  4 path_bun_t_immuno            0.0837
##  5 path_bun_t_hormone           0.0738
##  6 path_bun_t_sex               0.0737
##  7 path_bun_t_testosterone      0.0737
##  8 surg_bun_t_breast            0.0731
##  9 faci_bun_t_est               0.0577
## 10 medi_bun_t_evaluat           0.0571
## # ... with 136 more rows
…
3. Even more break downs.

While these are valid break downs, they seems to complex for the average customer to shop for, so I am going to display them, but they will not be in the final tool.

cscopy_with_lesion_biopsy_injection %>% get_tag_cor() %>% print()

## Warning in stats::cor(cor_data): the standard deviation is zero

## # A tibble: 198 x 2
##    name                 correlation
##    <chr>                      <dbl>
##  1 anes_bun_t_mod_sed         0.442
##  2 surg_bun_t_resect          0.264
##  3 path_bun_t_panel           0.152
##  4 path_bun_t_metabolic       0.148
##  5 path_bun_t_total           0.142
##  6 surg_bun_t_tags            0.141
##  7 medi_bun_t_emotional       0.141
##  8 medi_bun_t_stud            0.141
##  9 faci_bun_t_dept            0.140
## 10 faci_bun_t_emergency       0.140
## # ... with 188 more rows
…
cscopy_with_lesion_biopsy_injection <-  cscopy_with_lesion_biopsy_injection[surg_bun_t_resect==F] 

cscopy_with_lesion_biopsy_injection_mod_sed <-  cscopy_with_lesion_biopsy_injection[anes_bun_t_mod_sed==T]

cscopy_with_lesion_biopsy_injection <- cscopy_with_lesion_biopsy_injection[anes_bun_t_mod_sed==F]

cscopy_with_lesion_biopsy_injection %>% get_tag_cor() %>% print()

## Warning in stats::cor(cor_data): the standard deviation is zero

## # A tibble: 155 x 2
##    name                   correlation
##    <chr>                        <dbl>
##  1 anes_bun_t_anes              0.305
##  2 path_bun_t_blood             0.300
##  3 path_bun_t_panel             0.264
##  4 path_bun_t_glucose           0.248
##  5 path_bun_t_metabolic         0.246
##  6 medi_bun_t_choline           0.244
##  7 medi_bun_t_device            0.243
##  8 medi_bun_t_draw              0.243
##  9 medi_bun_t_haloperidol       0.232
## 10 anes_bun_t_anesth            0.232
## # ... with 145 more rows
…
cscopy_with_lesion_biopsy_injection_mod_sed %>% get_tag_cor() %>% print()

## Warning in stats::cor(cor_data): the standard deviation is zero

## # A tibble: 121 x 2
##    name                 correlation
##    <chr>                      <dbl>
##  1 surg_bun_t_tags            0.240
##  2 medi_bun_t_emotional       0.240
##  3 medi_bun_t_stud            0.240
##  4 faci_bun_t_dept            0.240
##  5 faci_bun_t_emergency       0.240
##  6 path_bun_t_psa             0.210
##  7 path_bun_t_total           0.192
##  8 path_bun_t_comprehen       0.181
##  9 path_bun_t_metabolic       0.181
## 10 path_bun_t_assay           0.162
## # ... with 111 more rows
…
cscopy_with_tissue %>% get_tag_cor() %>% print()

## Warning in stats::cor(cor_data): the standard deviation is zero

## # A tibble: 363 x 2
##    name                    correlation
##    <chr>                         <dbl>
##  1 anes_bun_t_anesth             0.274
##  2 anes_bun_t_surg               0.261
##  3 medi_bun_t_sodium             0.238
##  4 anes_bun_t_anes               0.216
##  5 anes_bun_t_mod_sed            0.199
##  6 surg_bun_t_remov              0.197
##  7 surg_bun_t_remove             0.189
##  8 faci_bun_t_discharge          0.141
##  9 surg_bun_t_biopsy             0.139
## 10 surg_bun_t_appendectomy       0.138
## # ... with 353 more rows
…
cscopy_with_tissue %>% get_tag_cor() %>% print()

## Warning in stats::cor(cor_data): the standard deviation is zero

## # A tibble: 339 x 2
##    name                 correlation
##    <chr>                      <dbl>
##  1 anes_bun_t_mod_sed         0.220
##  2 anes_bun_t_anes            0.175
##  3 faci_bun_t_discharge       0.149
##  4 faci_bun_t_initial         0.144
##  5 faci_bun_t_dept            0.141
##  6 faci_bun_t_emergency       0.141
##  7 medi_bun_t_normal          0.131
##  8 medi_bun_t_saline          0.131
##  9 medi_bun_t_solution        0.131
## 10 medi_bun_t_sodium          0.130
## # ... with 329 more rows
…
cscopy_with_tissue %>% get_tag_cor() %>% print()

## Warning in stats::cor(cor_data): the standard deviation is zero

## # A tibble: 295 x 2
##    name                 correlation
##    <chr>                      <dbl>
##  1 anes_bun_t_anes            0.237
##  2 faci_bun_t_discharge       0.198
##  3 faci_bun_t_initial         0.191
##  4 medi_bun_t_normal          0.176
##  5 medi_bun_t_saline          0.176
##  6 medi_bun_t_solution        0.176
##  7 medi_bun_t_sodium          0.170
##  8 faci_bun_t_dept            0.169
##  9 faci_bun_t_emergency       0.169
## 10 faci_bun_t_care            0.162
## # ... with 285 more rows
…
cscopy_with_tissue %>% get_tag_cor() %>% print()

## Warning in stats::cor(cor_data): the standard deviation is zero

## # A tibble: 211 x 2
##    name                          correlation
##    <chr>                               <dbl>
##  1 anes_bun_t_anes                    0.237 
##  2 surg_bun_t_njx                     0.0881
##  3 surg_bun_t_sub                     0.0824
##  4 medi_bun_t_tracing                 0.0642
##  5 faci_bun_t_est                     0.0608
##  6 medi_bun_t_methylprednisolone      0.0604
##  7 medi_bun_t_prednisolone            0.0604
##  8 path_bun_t_gene                    0.0604
##  9 surg_bun_t_control                 0.0597
## 10 faci_bun_t_visit                   0.0579
## # ... with 201 more rows
…
