…
hernia %>% get_tag_cor() %>% print()

## Warning in stats::cor(cor_data): the standard deviation is zero

## # A tibble: 465 x 2
##    name                correlation
##    <chr>                     <dbl>
##  1 duration_max              0.876
##  2 duration_mean             0.685
##  3 surg_bun_t_imag           0.652
##  4 surg_bun_t_fluid          0.612
##  5 medi_bun_t_subseq         0.596
##  6 radi_bun_t_head           0.55 
##  7 medi_bun_t_with           0.504
##  8 medi_bun_t_eye_exam       0.460
##  9 radi_bun_t_upper          0.441
## 10 surg_bun_t_cath           0.419
## # ... with 455 more rows
…
hernia %>% get_tag_cor() %>% print()

## Warning in stats::cor(cor_data): the standard deviation is zero

## # A tibble: 411 x 2
##    name              correlation
##    <chr>                   <dbl>
##  1 duration_mean           0.5  
##  2 surg_bun_t_lap          0.382
##  3 anes_bun_t_upper        0.352
##  4 anes_bun_t_hernia       0.342
##  5 anes_bun_t_repair       0.339
##  6 surg_bun_t_repair       0.338
##  7 surg_bun_t_esoph        0.336
##  8 anes_bun_t_surg         0.333
##  9 medi_bun_t_inject       0.329
## 10 anes_bun_t_abdom        0.305
## # ... with 401 more rows
…
hernia_lap %>% get_tag_cor() %>% print()

## Warning in stats::cor(cor_data): the standard deviation is zero

## # A tibble: 306 x 2
##    name               correlation
##    <chr>                    <dbl>
##  1 duration_max             0.516
##  2 duration_mean            0.505
##  3 medi_bun_t_sodium        0.349
##  4 medi_bun_t_inject        0.348
##  5 surg_bun_t_esoph         0.336
##  6 anes_bun_t_lower         0.335
##  7 surg_bun_t_hernia        0.303
##  8 surg_bun_t_art           0.282
##  9 surg_bun_t_partial       0.278
## 10 anes_bun_t_upper         0.276
## # ... with 296 more rows
…
hernia_lap %>% get_tag_cor() %>% print()

## Warning in stats::cor(cor_data): the standard deviation is zero

## # A tibble: 224 x 2
##    name                 correlation
##    <chr>                      <dbl>
##  1 surg_bun_t_lymph           0.286
##  2 surg_bun_t_urethra         0.286
##  3 surg_bun_t_prostat         0.280
##  4 surg_bun_t_prostate        0.280
##  5 surg_bun_t_bladder         0.27 
##  6 surg_bun_t_injection       0.246
##  7 surg_bun_t_block           0.237
##  8 anes_bun_t_lower           0.230
##  9 surg_bun_t_scope           0.228
## 10 surg_bun_t_stone           0.228
## # ... with 214 more rows
…
hernia_lap %>% get_tag_cor() %>% print()

## Warning in stats::cor(cor_data): the standard deviation is zero

## # A tibble: 215 x 2
##    name                 correlation
##    <chr>                      <dbl>
##  1 surg_bun_t_injection       0.256
##  2 surg_bun_t_graft           0.243
##  3 surg_bun_t_musc            0.243
##  4 surg_bun_t_block           0.234
##  5 surg_bun_t_skin            0.226
##  6 anes_bun_t_lower           0.208
##  7 anes_bun_t_upper           0.207
##  8 anes_bun_t_kidney          0.184
##  9 anes_bun_t_ureter          0.184
## 10 surg_bun_t_ant             0.167
## # ... with 205 more rows
…
hernia_lap %>% get_tag_cor() %>% print()

## Warning in stats::cor(cor_data): the standard deviation is zero

## # A tibble: 186 x 2
##    name                   correlation
##    <chr>                        <dbl>
##  1 anes_bun_t_kidney            0.227
##  2 anes_bun_t_ureter            0.227
##  3 surg_bun_t_ant               0.208
##  4 path_bun_t_total             0.203
##  5 surg_bun_t_drug              0.200
##  6 surg_bun_t_nephrectomy       0.200
##  7 surg_bun_t_implant           0.194
##  8 anes_bun_t_lower             0.192
##  9 path_bun_t_time              0.191
## 10 anes_bun_t_upper             0.187
## # ... with 176 more rows
…
hernia_lap %>% get_tag_cor() %>% print()

## Warning in stats::cor(cor_data): the standard deviation is zero

## # A tibble: 173 x 2
##    name                  correlation
##    <chr>                       <dbl>
##  1 anes_bun_t_upper            0.193
##  2 anes_bun_t_lower            0.176
##  3 path_bun_t_total            0.169
##  4 surg_bun_t_abd              0.150
##  5 path_bun_t_complete         0.140
##  6 path_bun_t_magnesium        0.123
##  7 path_bun_t_phosphorus       0.123
##  8 surg_bun_t_uterus           0.121
##  9 path_bun_t_time             0.109
## 10 path_bun_t_metabolic        0.107
## # ... with 163 more rows
…
hernia_lap %>% get_tag_cor() %>% print()

## Warning in stats::cor(cor_data): the standard deviation is zero

## # A tibble: 172 x 2
##    name                  correlation
##    <chr>                       <dbl>
##  1 anes_bun_t_upper           0.197 
##  2 anes_bun_t_lower           0.180 
##  3 path_bun_t_total           0.154 
##  4 surg_bun_t_abd             0.153 
##  5 path_bun_t_complete        0.131 
##  6 path_bun_t_magnesium       0.124 
##  7 path_bun_t_phosphorus      0.124 
##  8 path_bun_t_time            0.110 
##  9 surg_bun_t_mesh            0.0975
## 10 path_bun_t_metabolic       0.0956
## # ... with 162 more rows
…
hernia_n_lap %>% get_tag_cor() %>% print()

## Warning in stats::cor(cor_data): the standard deviation is zero

## # A tibble: 329 x 2
##    name                 correlation
##    <chr>                      <dbl>
##  1 duration_mean              0.56 
##  2 faci_bun_t_hospital        0.399
##  3 faci_bun_t_care            0.379
##  4 surg_bun_t_skin            0.362
##  5 surg_bun_t_graft           0.356
##  6 surg_bun_t_intestine       0.348
##  7 surg_bun_t_small           0.348
##  8 surg_bun_t_musc            0.340
##  9 faci_bun_t_initial         0.337
## 10 medi_bun_t_inject          0.333
## # ... with 319 more rows
…
hernia_n_lap %>% get_tag_cor() %>% print()

## Warning in stats::cor(cor_data): the standard deviation is zero

## # A tibble: 301 x 2
##    name                correlation
##    <chr>                     <dbl>
##  1 duration_max              0.504
##  2 duration_mean             0.491
##  3 surg_bun_t_esoph          0.331
##  4 radi_bun_t_ct             0.279
##  5 radi_bun_t_chest          0.272
##  6 surg_bun_t_hernia         0.268
##  7 surg_bun_t_repair         0.257
##  8 radi_bun_t_upper          0.240
##  9 radi_bun_t_contrast       0.239
## 10 anes_bun_t_upper          0.237
## # ... with 291 more rows
…
hernia_n_lap %>% get_tag_cor() %>% print()

## Warning in stats::cor(cor_data): the standard deviation is zero

## # A tibble: 290 x 2
##    name                   correlation
##    <chr>                        <dbl>
##  1 duration_max                 0.356
##  2 duration_mean                0.343
##  3 surg_bun_t_hernia            0.296
##  4 surg_bun_t_repair            0.270
##  5 surg_bun_t_mesh              0.250
##  6 surg_bun_t_injection         0.236
##  7 surg_bun_t_umbil             0.234
##  8 surg_bun_t_art               0.210
##  9 surg_bun_t_arthro            0.210
## 10 surg_bun_t_arthroscopy       0.210
## # ... with 280 more rows
…
hernia_n_lap %>% get_tag_cor() %>% print()

## Warning in stats::cor(cor_data): the standard deviation is zero

## # A tibble: 258 x 2
##    name                   correlation
##    <chr>                        <dbl>
##  1 duration_max                 0.366
##  2 duration_mean                0.356
##  3 surg_bun_t_hernia            0.307
##  4 surg_bun_t_repair            0.294
##  5 surg_bun_t_umbil             0.271
##  6 surg_bun_t_mesh              0.268
##  7 surg_bun_t_injection         0.232
##  8 surg_bun_t_tum               0.187
##  9 path_bun_t_patho             0.148
## 10 path_bun_t_pathologist       0.148
## # ... with 248 more rows
…
hernia_n_lap %>% get_tag_cor() %>% print()

## Warning in stats::cor(cor_data): the standard deviation is zero

## # A tibble: 207 x 2
##    name                 correlation
##    <chr>                      <dbl>
##  1 duration_max               0.318
##  2 surg_bun_t_hernia          0.314
##  3 duration_mean              0.310
##  4 surg_bun_t_repair          0.276
##  5 surg_bun_t_mesh            0.259
##  6 surg_bun_t_umbil           0.258
##  7 surg_bun_t_injection       0.212
##  8 medi_bun_t_splt            0.166
##  9 surg_bun_t_revise          0.152
## 10 surg_bun_t_ablate          0.148
## # ... with 197 more rows
…
hernia_n_lap %>% get_tag_cor() %>% print()

## Warning in stats::cor(cor_data): the standard deviation is zero

## # A tibble: 173 x 2
##    name                  correlation
##    <chr>                       <dbl>
##  1 surg_bun_t_hernia          0.299 
##  2 surg_bun_t_repair          0.284 
##  3 surg_bun_t_mesh            0.267 
##  4 surg_bun_t_umbil           0.261 
##  5 duration_max               0.240 
##  6 duration_mean              0.229 
##  7 medi_bun_t_oral            0.110 
##  8 surg_bun_t_suspension      0.108 
##  9 surg_bun_t_testis          0.108 
## 10 anes_bun_t_anes            0.0941
## # ... with 163 more rows
…
hernia_n_lap %>% get_tag_cor() %>% print()

## Warning in stats::cor(cor_data): the standard deviation is zero

## # A tibble: 172 x 2
##    name                  correlation
##    <chr>                       <dbl>
##  1 surg_bun_t_hernia          0.294 
##  2 surg_bun_t_umbil           0.271 
##  3 surg_bun_t_repair          0.268 
##  4 surg_bun_t_mesh            0.238 
##  5 surg_bun_t_testis          0.129 
##  6 surg_bun_t_suspension      0.129 
##  7 medi_bun_t_oral            0.121 
##  8 duration_max               0.119 
##  9 surg_bun_t_arm             0.0949
## 10 surg_bun_t_elbow           0.0949
## # ... with 162 more rows
…
hernia_n_lap %>% get_tag_cor() %>% print()

## Warning in stats::cor(cor_data): the standard deviation is zero

## # A tibble: 166 x 2
##    name              correlation
##    <chr>                   <dbl>
##  1 surg_bun_t_hernia      0.276 
##  2 surg_bun_t_repair      0.273 
##  3 surg_bun_t_umbil       0.259 
##  4 surg_bun_t_mesh        0.247 
##  5 duration_max           0.121 
##  6 medi_bun_t_oral        0.120 
##  7 surg_bun_t_arm         0.0969
##  8 surg_bun_t_elbow       0.0969
##  9 anes_bun_t_head        0.0969
## 10 anes_bun_t_neck        0.0969
## # ... with 156 more rows
…
hernia_n_lap %>% get_tag_cor() %>% print()

## Warning in stats::cor(cor_data): the standard deviation is zero

## # A tibble: 161 x 2
##    name               correlation
##    <chr>                    <dbl>
##  1 surg_bun_t_hernia       0.275 
##  2 surg_bun_t_repair       0.274 
##  3 surg_bun_t_umbil        0.254 
##  4 surg_bun_t_mesh         0.250 
##  5 duration_max            0.121 
##  6 surg_bun_t_arm          0.0972
##  7 surg_bun_t_elbow        0.0972
##  8 anes_bun_t_head         0.0972
##  9 anes_bun_t_neck         0.0972
## 10 medi_bun_t_tracing      0.0959
## # ... with 151 more rows
…
