…
hip %>% get_tag_cor() %>% print()

## Warning in stats::cor(cor_data): the standard deviation is zero

## # A tibble: 255 x 2
##    name                    correlation
##    <chr>                         <dbl>
##  1 surg_bun_t_arthroplasty       0.309
##  2 surg_bun_t_total              0.309
##  3 duration_max                  0.263
##  4 radi_bun_t_pelvi              0.246
##  5 radi_bun_t_exam               0.233
##  6 radi_bun_t_x-ray              0.233
##  7 anes_bun_t_anes               0.202
##  8 anes_bun_t_anesth             0.202
##  9 surg_bun_t_repair             0.201
## 10 medi_bun_t_inject             0.185
## # ... with 245 more rows
…
hip_total %>% get_tag_cor() %>% print()

## Warning in stats::cor(cor_data): the standard deviation is zero

## # A tibble: 200 x 2
##    name                   correlation
##    <chr>                        <dbl>
##  1 radi_bun_t_without_dye       0.284
##  2 surg_bun_t_place             0.278
##  3 surg_bun_t_revise            0.278
##  4 radi_bun_t_ct                0.272
##  5 anes_bun_t_surg              0.250
##  6 anes_bun_t_joint             0.242
##  7 surg_bun_t_resect            0.236
##  8 surg_bun_t_joint             0.219
##  9 radi_bun_t_arm               0.207
## 10 radi_bun_t_leg               0.207
## # ... with 190 more rows
…
hip_total %>% get_tag_cor() %>% print()

## Warning in stats::cor(cor_data): the standard deviation is zero

## # A tibble: 157 x 2
##    name                correlation
##    <chr>                     <dbl>
##  1 surg_bun_t_embolize       0.176
##  2 surg_bun_t_resect         0.176
##  3 radi_bun_t_arm            0.176
##  4 radi_bun_t_artery         0.176
##  5 radi_bun_t_leg            0.176
##  6 radi_bun_t_vessel         0.176
##  7 anes_bun_t_mod_sed        0.176
##  8 surg_bun_t_pelvis         0.169
##  9 surg_bun_t_exc            0.151
## 10 surg_bun_t_tum            0.140
## # ... with 147 more rows
…
hip_total %>% get_tag_cor() %>% print()

## Warning in stats::cor(cor_data): the standard deviation is zero

## # A tibble: 150 x 2
##    name               correlation
##    <chr>                    <dbl>
##  1 surg_bun_t_pelvis       0.172 
##  2 anes_bun_t_anes         0.166 
##  3 anes_bun_t_anesth       0.166 
##  4 surg_bun_t_exc          0.154 
##  5 anes_bun_t_repair       0.143 
##  6 path_bun_t_hormone      0.129 
##  7 path_bun_t_thyroid      0.129 
##  8 surg_bun_t_place        0.118 
##  9 surg_bun_t_revise       0.118 
## 10 surg_bun_t_dev          0.0988
## # ... with 140 more rows
…
hip_total %>% get_tag_cor() %>% print()

## Warning in stats::cor(cor_data): the standard deviation is zero

## # A tibble: 149 x 2
##    name               correlation
##    <chr>                    <dbl>
##  1 anes_bun_t_anes          0.167
##  2 anes_bun_t_anesth        0.167
##  3 anes_bun_t_repair        0.146
##  4 path_bun_t_hormone       0.131
##  5 path_bun_t_thyroid       0.131
##  6 surg_bun_t_place         0.121
##  7 surg_bun_t_revise        0.121
##  8 surg_bun_t_dev           0.101
##  9 surg_bun_t_device        0.101
## 10 surg_bun_t_drug          0.101
## # ... with 139 more rows
…
hip_total %>% get_tag_cor() %>% print()

## Warning in stats::cor(cor_data): the standard deviation is zero

## # A tibble: 141 x 2
##    name               correlation
##    <chr>                    <dbl>
##  1 anes_bun_t_repair        0.15 
##  2 path_bun_t_hormone       0.137
##  3 path_bun_t_thyroid       0.137
##  4 surg_bun_t_place         0.125
##  5 surg_bun_t_revise        0.125
##  6 duration_mean            0.118
##  7 surg_bun_t_joint         0.113
##  8 radi_bun_t_exam          0.105
##  9 radi_bun_t_x-ray         0.105
## 10 surg_bun_t_dev           0.104
## # ... with 131 more rows
…
hip_total %>% get_tag_cor() %>% print()

## Warning in stats::cor(cor_data): the standard deviation is zero

## # A tibble: 136 x 2
##    name                    correlation
##    <chr>                         <dbl>
##  1 path_bun_t_hormone           0.140 
##  2 path_bun_t_thyroid           0.140 
##  3 duration_mean                0.113 
##  4 radi_bun_t_exam              0.106 
##  5 radi_bun_t_x-ray             0.106 
##  6 radi_bun_t_pelvi             0.0961
##  7 radi_bun_t_chest             0.082 
##  8 faci_bun_t_consultation      0.0809
##  9 faci_bun_t_inpatient         0.0809
## 10 medi_bun_t_inject            0.0766
## # ... with 126 more rows
…
hip_total %>% get_tag_cor() %>% print()

## Warning in stats::cor(cor_data): the standard deviation is zero

## # A tibble: 134 x 2
##    name                    correlation
##    <chr>                         <dbl>
##  1 duration_mean                0.104 
##  2 radi_bun_t_exam              0.0987
##  3 radi_bun_t_x-ray             0.0987
##  4 radi_bun_t_pelvi             0.0903
##  5 radi_bun_t_chest             0.0833
##  6 faci_bun_t_consultation      0.0819
##  7 faci_bun_t_inpatient         0.0819
##  8 medi_bun_t_inject            0.0766
##  9 path_bun_t_blood             0.0765
## 10 radi_bun_t_angiography       0.0737
## # ... with 124 more rows
…
hip_total %>% get_tag_cor() %>% print()

## Warning in stats::cor(cor_data): the standard deviation is zero

## # A tibble: 132 x 2
##    name                   correlation
##    <chr>                        <dbl>
##  1 duration_mean               0.103 
##  2 radi_bun_t_exam             0.094 
##  3 radi_bun_t_x-ray            0.094 
##  4 radi_bun_t_pelvi            0.0868
##  5 radi_bun_t_chest            0.0838
##  6 path_bun_t_blood            0.0765
##  7 medi_bun_t_inject           0.0765
##  8 radi_bun_t_angiography      0.0741
##  9 radi_bun_t_ct               0.0741
## 10 path_bun_t_glucose          0.0699
## # ... with 122 more rows
…
