…
hyst %>% get_tag_cor() %>% print()

## Warning in stats::cor(cor_data): the standard deviation is zero

## # A tibble: 219 x 2
##    name                correlation
##    <chr>                     <dbl>
##  1 duration_max              0.528
##  2 anes_bun_t_upper          0.443
##  3 medi_bun_t_wound          0.432
##  4 medi_bun_t_cathet         0.430
##  5 surg_bun_t_colon          0.428
##  6 faci_bun_t_critical       0.411
##  7 surg_bun_t_rectal         0.401
##  8 anes_bun_t_cs             0.394
##  9 surg_bun_t_removal        0.376
## 10 duration_mean             0.374
## # ... with 209 more rows
…
hyst %>% get_tag_cor() %>% print()

## Warning in stats::cor(cor_data): the standard deviation is zero

## # A tibble: 215 x 2
##    name                correlation
##    <chr>                     <dbl>
##  1 anes_bun_t_cs             0.465
##  2 duration_max              0.430
##  3 anes_bun_t_deliver        0.401
##  4 anes_bun_t_liver          0.401
##  5 medi_bun_t_cathet         0.392
##  6 surg_bun_t_delivery       0.388
##  7 surg_bun_t_liver          0.388
##  8 surg_bun_t_cesarean       0.34 
##  9 medi_bun_t_inject         0.332
## 10 medi_bun_t_sodium         0.330
## # ... with 205 more rows
…
hyst %>% get_tag_cor() %>% print()

## Warning in stats::cor(cor_data): the standard deviation is zero

## # A tibble: 213 x 2
##    name                correlation
##    <chr>                     <dbl>
##  1 duration_max              0.486
##  2 anes_bun_t_cs             0.475
##  3 anes_bun_t_deliver        0.410
##  4 anes_bun_t_liver          0.410
##  5 medi_bun_t_cathet         0.401
##  6 surg_bun_t_delivery       0.396
##  7 surg_bun_t_liver          0.396
##  8 surg_bun_t_cesarean       0.347
##  9 duration_mean             0.346
## 10 anes_bun_t_bladder        0.334
## # ... with 203 more rows
…
hyst %>% get_tag_cor() %>% print()

## Warning in stats::cor(cor_data): the standard deviation is zero

## # A tibble: 200 x 2
##    name               correlation
##    <chr>                    <dbl>
##  1 duration_max             0.456
##  2 anes_bun_t_bladder       0.374
##  3 anes_bun_t_removal       0.374
##  4 surg_bun_t_removal       0.362
##  5 duration_mean            0.354
##  6 surg_bun_t_remov         0.328
##  7 surg_bun_t_colon         0.324
##  8 medi_bun_t_inject        0.322
##  9 medi_bun_t_sodium        0.321
## 10 medi_bun_t_cathet        0.319
## # ... with 190 more rows
…
hyst %>% get_tag_cor() %>% print()

## Warning in stats::cor(cor_data): the standard deviation is zero

## # A tibble: 191 x 2
##    name                 correlation
##    <chr>                      <dbl>
##  1 duration_max               0.405
##  2 surg_bun_t_colon           0.351
##  3 duration_mean              0.341
##  4 medi_bun_t_inject          0.320
##  5 medi_bun_t_sodium          0.319
##  6 surg_bun_t_dilat           0.317
##  7 surg_bun_t_dilation        0.317
##  8 anes_bun_t_cs              0.317
##  9 faci_bun_t_discharge       0.317
## 10 surg_bun_t_vag             0.281
## # ... with 181 more rows
…
hyst_vag %>% get_tag_cor() %>% print()

## Warning in stats::cor(cor_data): the standard deviation is zero

## # A tibble: 153 x 2
##    name                       correlation
##    <chr>                            <dbl>
##  1 surg_bun_t_coloproctostomy       0.337
##  2 duration_max                     0.328
##  3 medi_bun_t_inject                0.314
##  4 medi_bun_t_sodium                0.312
##  5 surg_bun_t_defect                0.311
##  6 surg_bun_t_bladder               0.280
##  7 surg_bun_t_repair                0.280
##  8 duration_mean                    0.279
##  9 path_bun_t_complete              0.222
## 10 path_bun_t_without_scope         0.218
## # ... with 143 more rows
…
hyst_vag %>% get_tag_cor() %>% print()

## Warning in stats::cor(cor_data): the standard deviation is zero

## # A tibble: 145 x 2
##    name                     correlation
##    <chr>                          <dbl>
##  1 duration_max                   0.391
##  2 duration_mean                  0.354
##  3 path_bun_t_without_scope       0.283
##  4 anes_bun_t_hysterectomy        0.268
##  5 anes_bun_t_vag                 0.268
##  6 medi_bun_t_sodium              0.257
##  7 medi_bun_t_inject              0.253
##  8 anes_bun_t_anes                0.229
##  9 anes_bun_t_anesth              0.229
## 10 surg_bun_t_total               0.219
## # ... with 135 more rows
…
hyst_total %>% get_tag_cor() %>% print()

## Warning in stats::cor(cor_data): the standard deviation is zero

## # A tibble: 128 x 2
##    name                  correlation
##    <chr>                       <dbl>
##  1 surg_bun_t_colon            0.456
##  2 surg_bun_t_art              0.400
##  3 surg_bun_t_part             0.400
##  4 surg_bun_t_partial          0.400
##  5 surg_bun_t_removal          0.381
##  6 surg_bun_t_remov            0.345
##  7 path_bun_t_tumor            0.321
##  8 surg_bun_t_laparoscop       0.317
##  9 surg_bun_t_renal            0.316
## 10 surg_bun_t_lap              0.292
## # ... with 118 more rows
…
hyst_total %>% get_tag_cor() %>% print()

## Warning in stats::cor(cor_data): the standard deviation is zero

## # A tibble: 122 x 2
##    name                   correlation
##    <chr>                        <dbl>
##  1 surg_bun_t_complex           0.209
##  2 medi_bun_t_cathet            0.209
##  3 surg_bun_t_remove            0.207
##  4 surg_bun_t_wound             0.202
##  5 surg_bun_t_lap               0.200
##  6 path_bun_t_immuno            0.194
##  7 path_bun_t_immunohisto       0.194
##  8 surg_bun_t_laparoscop        0.193
##  9 surg_bun_t_tags              0.193
## 10 surg_bun_t_drain             0.190
## # ... with 112 more rows
…
hyst_total %>% get_tag_cor() %>% print()

## Warning in stats::cor(cor_data): the standard deviation is zero

## # A tibble: 111 x 2
##    name                    correlation
##    <chr>                         <dbl>
##  1 path_bun_t_patho              0.162
##  2 path_bun_t_pathologist        0.162
##  3 path_bun_t_tissue             0.162
##  4 surg_bun_t_repair             0.160
##  5 path_bun_t_immuno             0.14 
##  6 path_bun_t_immunohisto        0.14 
##  7 surg_bun_t_defect             0.137
##  8 medi_bun_t_iiv                0.131
##  9 medi_bun_t_immun              0.131
## 10 medi_bun_t_immunization       0.131
## # ... with 101 more rows
…
