…
knee %>% get_tag_cor() %>% print()

## Warning in stats::cor(cor_data): the standard deviation is zero

## # A tibble: 210 x 2
##    name                   correlation
##    <chr>                        <dbl>
##  1 duration_mean                0.446
##  2 anes_bun_t_anes              0.260
##  3 anes_bun_t_anesth            0.260
##  4 anes_bun_t_knee              0.256
##  5 duration_max                 0.160
##  6 path_bun_t_anti              0.138
##  7 path_bun_t_antibod           0.138
##  8 path_bun_t_typing            0.138
##  9 path_bun_t_screen            0.128
## 10 radi_bun_t_angiography       0.124
## # ... with 200 more rows
…
knee %>% get_tag_cor() %>% print()

## Warning in stats::cor(cor_data): the standard deviation is zero

## # A tibble: 190 x 2
##    name                   correlation
##    <chr>                        <dbl>
##  1 path_bun_t_anti              0.227
##  2 path_bun_t_antibod           0.227
##  3 path_bun_t_typing            0.227
##  4 path_bun_t_screen            0.199
##  5 duration_mean                0.199
##  6 radi_bun_t_angiography       0.191
##  7 path_bun_t_blood             0.169
##  8 path_bun_t_panel             0.166
##  9 path_bun_t_metabolic         0.159
## 10 faci_bun_t_hospital          0.150
## # ... with 180 more rows
…
knee %>% get_tag_cor() %>% print()

## Warning in stats::cor(cor_data): the standard deviation is zero

## # A tibble: 186 x 2
##    name                    correlation
##    <chr>                         <dbl>
##  1 duration_mean                 0.202
##  2 surg_bun_t_femur              0.153
##  3 surg_bun_t_resect             0.153
##  4 surg_bun_t_tumor              0.153
##  5 faci_bun_t_hospital           0.134
##  6 faci_bun_t_care               0.128
##  7 faci_bun_t_subsequent         0.124
##  8 surg_bun_t_interlaminar       0.122
##  9 surg_bun_t_lamina             0.122
## 10 surg_bun_t_njx                0.122
## # ... with 176 more rows
…
knee %>% get_tag_cor() %>% print()

## Warning in stats::cor(cor_data): the standard deviation is zero

## # A tibble: 183 x 2
##    name                    correlation
##    <chr>                         <dbl>
##  1 duration_mean                 0.198
##  2 faci_bun_t_hospital           0.138
##  3 faci_bun_t_care               0.131
##  4 faci_bun_t_subsequent         0.127
##  5 radi_bun_t_echo               0.125
##  6 surg_bun_t_interlaminar       0.124
##  7 surg_bun_t_lamina             0.124
##  8 surg_bun_t_njx                0.124
##  9 radi_bun_t_guide              0.124
## 10 anes_bun_t_knee               0.121
## # ... with 173 more rows
…
knee %>% get_tag_cor() %>% print()

## Warning in stats::cor(cor_data): the standard deviation is zero

## # A tibble: 148 x 2
##    name                    correlation
##    <chr>                         <dbl>
##  1 duration_mean                 0.194
##  2 surg_bun_t_interlaminar       0.126
##  3 surg_bun_t_lamina             0.126
##  4 surg_bun_t_njx                0.126
##  5 anes_bun_t_anes               0.111
##  6 anes_bun_t_anesth             0.111
##  7 surg_bun_t_dev                0.111
##  8 surg_bun_t_device             0.111
##  9 surg_bun_t_drug               0.111
## 10 surg_bun_t_remove             0.111
## # ... with 138 more rows
…
knee %>% get_tag_cor() %>% print()

## Warning in stats::cor(cor_data): the standard deviation is zero

## # A tibble: 145 x 2
##    name                     correlation
##    <chr>                          <dbl>
##  1 duration_mean                  0.190
##  2 surg_bun_t_dev                 0.113
##  3 surg_bun_t_device              0.113
##  4 surg_bun_t_drug                0.113
##  5 surg_bun_t_remove              0.113
##  6 path_bun_t_without_scope       0.112
##  7 anes_bun_t_anes                0.110
##  8 anes_bun_t_anesth              0.110
##  9 anes_bun_t_knee                0.107
## 10 radi_bun_t_echo                0.104
## # ... with 135 more rows
…
knee %>% get_tag_cor() %>% print()

## Warning in stats::cor(cor_data): the standard deviation is zero

## # A tibble: 141 x 2
##    name                     correlation
##    <chr>                          <dbl>
##  1 duration_mean                 0.190 
##  2 path_bun_t_without_scope      0.112 
##  3 anes_bun_t_anes               0.110 
##  4 anes_bun_t_anesth             0.110 
##  5 anes_bun_t_knee               0.107 
##  6 surg_bun_t_place              0.103 
##  7 surg_bun_t_revise             0.103 
##  8 radi_bun_t_echo               0.101 
##  9 radi_bun_t_guide              0.101 
## 10 medi_bun_t_sodium             0.0951
## # ... with 131 more rows
…
knee %>% get_tag_cor() %>% print()

## Warning in stats::cor(cor_data): the standard deviation is zero

## # A tibble: 138 x 2
##    name               correlation
##    <chr>                    <dbl>
##  1 duration_mean           0.191 
##  2 radi_bun_t_echo         0.113 
##  3 radi_bun_t_guide        0.113 
##  4 anes_bun_t_anes         0.112 
##  5 anes_bun_t_anesth       0.112 
##  6 anes_bun_t_knee         0.109 
##  7 path_bun_t_panel        0.100 
##  8 surg_bun_t_block        0.0997
##  9 medi_bun_t_sodium       0.097 
## 10 medi_bun_t_sulfate      0.0958
## # ... with 128 more rows
…
knee %>% get_tag_cor() %>% print()

## Warning in stats::cor(cor_data): the standard deviation is zero

## # A tibble: 138 x 2
##    name               correlation
##    <chr>                    <dbl>
##  1 duration_mean           0.191 
##  2 radi_bun_t_echo         0.113 
##  3 radi_bun_t_guide        0.113 
##  4 anes_bun_t_anes         0.112 
##  5 anes_bun_t_anesth       0.112 
##  6 anes_bun_t_knee         0.109 
##  7 path_bun_t_panel        0.100 
##  8 surg_bun_t_block        0.0997
##  9 medi_bun_t_sodium       0.097 
## 10 medi_bun_t_sulfate      0.0958
## # ... with 128 more rows
…
